^G:\Fanshawe\ConfigAndDeploy\XMLProject\cocos2d\cocos\2d\libcocos2d.vcxproj
G:\Fanshawe\ConfigAndDeploy\XMLProject\localizationProject\Debug.win32\libcocos2d.lib
G:\Fanshawe\ConfigAndDeploy\XMLProject\localizationProject\Debug.win32\libcocos2d.exp
^G:\Fanshawe\ConfigAndDeploy\XMLProject\cocos2d\cocos\2d\libcocos2d.vcxproj
G:\Fanshawe\ConfigAndDeploy\XMLProject\proj.win32\Debug.win32\libcocos2d.lib
G:\Fanshawe\ConfigAndDeploy\XMLProject\proj.win32\Debug.win32\libcocos2d.exp
