^G:\Fanshawe\ConfigAndDeploy\Localization\cocos2d\cocos\2d\libcocos2d.vcxproj
G:\Fanshawe\ConfigAndDeploy\Localization\LocalizationProject\Debug.win32\libcocos2d.lib
G:\Fanshawe\ConfigAndDeploy\Localization\LocalizationProject\Debug.win32\libcocos2d.exp
