^G:\FANSHAWE\CONFIGANDDEPLOY\LOCALIZATION\CLASSES\APPDELEGATE.CPP|G:\FANSHAWE\CONFIGANDDEPLOY\LOCALIZATION\CLASSES\DOGMAGNET.CPP|G:\FANSHAWE\CONFIGANDDEPLOY\LOCALIZATION\CLASSES\INVISIBILEALLIGATORS.CPP|G:\FANSHAWE\CONFIGANDDEPLOY\LOCALIZATION\CLASSES\MAINMENU.CPP|G:\FANSHAWE\CONFIGANDDEPLOY\LOCALIZATION\CLASSES\PIRATEMONKEY.CPP|G:\FANSHAWE\CONFIGANDDEPLOY\LOCALIZATION\LOCALIZATIONPROJECT\MAIN.CPP
G:\FANSHAWE\CONFIGANDDEPLOY\LOCALIZATION\LOCALIZATIONPROJECT\DEBUG.WIN32\MAIN.OBJ
G:\FANSHAWE\CONFIGANDDEPLOY\LOCALIZATION\LOCALIZATIONPROJECT\DEBUG.WIN32\APPDELEGATE.OBJ
G:\FANSHAWE\CONFIGANDDEPLOY\LOCALIZATION\LOCALIZATIONPROJECT\DEBUG.WIN32\DOGMAGNET.OBJ
G:\FANSHAWE\CONFIGANDDEPLOY\LOCALIZATION\LOCALIZATIONPROJECT\DEBUG.WIN32\INVISIBILEALLIGATORS.OBJ
G:\FANSHAWE\CONFIGANDDEPLOY\LOCALIZATION\LOCALIZATIONPROJECT\DEBUG.WIN32\PIRATEMONKEY.OBJ
G:\FANSHAWE\CONFIGANDDEPLOY\LOCALIZATION\LOCALIZATIONPROJECT\DEBUG.WIN32\MAINMENU.OBJ
^G:\FANSHAWE\CONFIGANDDEPLOY\LOCALIZATION\LOCALIZATIONPROJECT\MAIN.CPP
G:\FANSHAWE\CONFIGANDDEPLOY\LOCALIZATION\LOCALIZATIONPROJECT\DEBUG.WIN32\VC120.PDB
^G:\FANSHAWE\CONFIGANDDEPLOY\LOCALIZATION\CLASSES\DOGMAGNET.CPP|G:\FANSHAWE\CONFIGANDDEPLOY\LOCALIZATION\CLASSES\XMLTOOL.CPP
G:\FANSHAWE\CONFIGANDDEPLOY\LOCALIZATION\LOCALIZATIONPROJECT\DEBUG.WIN32\DOGMAGNET.OBJ
G:\FANSHAWE\CONFIGANDDEPLOY\LOCALIZATION\LOCALIZATIONPROJECT\DEBUG.WIN32\XMLTOOL.OBJ
^G:\FANSHAWE\CONFIGANDDEPLOY\LOCALIZATION\CLASSES\DOGMAGNET.CPP|G:\FANSHAWE\CONFIGANDDEPLOY\LOCALIZATION\CLASSES\MAINMENU.CPP
G:\FANSHAWE\CONFIGANDDEPLOY\LOCALIZATION\LOCALIZATIONPROJECT\DEBUG.WIN32\DOGMAGNET.OBJ
G:\FANSHAWE\CONFIGANDDEPLOY\LOCALIZATION\LOCALIZATIONPROJECT\DEBUG.WIN32\MAINMENU.OBJ
^G:\FANSHAWE\CONFIGANDDEPLOY\LOCALIZATION\CLASSES\INVISIBILEALLIGATORS.CPP|G:\FANSHAWE\CONFIGANDDEPLOY\LOCALIZATION\CLASSES\MAINMENU.CPP
G:\FANSHAWE\CONFIGANDDEPLOY\LOCALIZATION\LOCALIZATIONPROJECT\DEBUG.WIN32\MAINMENU.OBJ
G:\FANSHAWE\CONFIGANDDEPLOY\LOCALIZATION\LOCALIZATIONPROJECT\DEBUG.WIN32\INVISIBILEALLIGATORS.OBJ
^G:\FANSHAWE\CONFIGANDDEPLOY\LOCALIZATION\CLASSES\APPDELEGATE.CPP|G:\FANSHAWE\CONFIGANDDEPLOY\LOCALIZATION\CLASSES\DOGMAGNET.CPP|G:\FANSHAWE\CONFIGANDDEPLOY\LOCALIZATION\CLASSES\GLOBAL.CPP|G:\FANSHAWE\CONFIGANDDEPLOY\LOCALIZATION\CLASSES\INVISIBILEALLIGATORS.CPP|G:\FANSHAWE\CONFIGANDDEPLOY\LOCALIZATION\CLASSES\MAINMENU.CPP|G:\FANSHAWE\CONFIGANDDEPLOY\LOCALIZATION\CLASSES\PIRATEMONKEY.CPP|G:\FANSHAWE\CONFIGANDDEPLOY\LOCALIZATION\CLASSES\XMLTOOL.CPP
G:\FANSHAWE\CONFIGANDDEPLOY\LOCALIZATION\LOCALIZATIONPROJECT\DEBUG.WIN32\GLOBAL.OBJ
G:\FANSHAWE\CONFIGANDDEPLOY\LOCALIZATION\LOCALIZATIONPROJECT\DEBUG.WIN32\DOGMAGNET.OBJ
G:\FANSHAWE\CONFIGANDDEPLOY\LOCALIZATION\LOCALIZATIONPROJECT\DEBUG.WIN32\INVISIBILEALLIGATORS.OBJ
G:\FANSHAWE\CONFIGANDDEPLOY\LOCALIZATION\LOCALIZATIONPROJECT\DEBUG.WIN32\PIRATEMONKEY.OBJ
^G:\FANSHAWE\CONFIGANDDEPLOY\LOCALIZATION\CLASSES\GLOBAL.CPP
G:\FANSHAWE\CONFIGANDDEPLOY\LOCALIZATION\LOCALIZATIONPROJECT\DEBUG.WIN32\GLOBAL.OBJ
^G:\FANSHAWE\CONFIGANDDEPLOY\LOCALIZATION\CLASSES\APPDELEGATE.CPP|G:\FANSHAWE\CONFIGANDDEPLOY\LOCALIZATION\CLASSES\MAINMENU.CPP
G:\FANSHAWE\CONFIGANDDEPLOY\LOCALIZATION\LOCALIZATIONPROJECT\DEBUG.WIN32\APPDELEGATE.OBJ
G:\FANSHAWE\CONFIGANDDEPLOY\LOCALIZATION\LOCALIZATIONPROJECT\DEBUG.WIN32\MAINMENU.OBJ
^G:\FANSHAWE\CONFIGANDDEPLOY\LOCALIZATION\CLASSES\APPDELEGATE.CPP|G:\FANSHAWE\CONFIGANDDEPLOY\LOCALIZATION\CLASSES\DOGMAGNET.CPP|G:\FANSHAWE\CONFIGANDDEPLOY\LOCALIZATION\CLASSES\INVISIBILEALLIGATORS.CPP|G:\FANSHAWE\CONFIGANDDEPLOY\LOCALIZATION\CLASSES\MAINMENU.CPP|G:\FANSHAWE\CONFIGANDDEPLOY\LOCALIZATION\CLASSES\PIRATEMONKEY.CPP|G:\FANSHAWE\CONFIGANDDEPLOY\LOCALIZATION\CLASSES\XMLTOOL.CPP
G:\FANSHAWE\CONFIGANDDEPLOY\LOCALIZATION\LOCALIZATIONPROJECT\DEBUG.WIN32\APPDELEGATE.OBJ
G:\FANSHAWE\CONFIGANDDEPLOY\LOCALIZATION\LOCALIZATIONPROJECT\DEBUG.WIN32\XMLTOOL.OBJ
G:\FANSHAWE\CONFIGANDDEPLOY\LOCALIZATION\LOCALIZATIONPROJECT\DEBUG.WIN32\PIRATEMONKEY.OBJ
G:\FANSHAWE\CONFIGANDDEPLOY\LOCALIZATION\LOCALIZATIONPROJECT\DEBUG.WIN32\DOGMAGNET.OBJ
G:\FANSHAWE\CONFIGANDDEPLOY\LOCALIZATION\LOCALIZATIONPROJECT\DEBUG.WIN32\INVISIBILEALLIGATORS.OBJ
^G:\FANSHAWE\CONFIGANDDEPLOY\LOCALIZATION\CLASSES\MAINMENU.CPP|G:\FANSHAWE\CONFIGANDDEPLOY\LOCALIZATION\CLASSES\XMLTOOL.CPP
G:\FANSHAWE\CONFIGANDDEPLOY\LOCALIZATION\LOCALIZATIONPROJECT\DEBUG.WIN32\XMLTOOL.OBJ
^G:\FANSHAWE\CONFIGANDDEPLOY\LOCALIZATION\CLASSES\APPDELEGATE.CPP|G:\FANSHAWE\CONFIGANDDEPLOY\LOCALIZATION\CLASSES\MAINMENU.CPP|G:\FANSHAWE\CONFIGANDDEPLOY\LOCALIZATION\CLASSES\XMLTOOL.CPP
G:\FANSHAWE\CONFIGANDDEPLOY\LOCALIZATION\LOCALIZATIONPROJECT\DEBUG.WIN32\APPDELEGATE.OBJ
G:\FANSHAWE\CONFIGANDDEPLOY\LOCALIZATION\LOCALIZATIONPROJECT\DEBUG.WIN32\XMLTOOL.OBJ
G:\FANSHAWE\CONFIGANDDEPLOY\LOCALIZATION\LOCALIZATIONPROJECT\DEBUG.WIN32\MAINMENU.OBJ
^G:\FANSHAWE\CONFIGANDDEPLOY\LOCALIZATION\CLASSES\APPDELEGATE.CPP
G:\FANSHAWE\CONFIGANDDEPLOY\LOCALIZATION\LOCALIZATIONPROJECT\DEBUG.WIN32\VC120.PDB
^G:\FANSHAWE\CONFIGANDDEPLOY\LOCALIZATION\CLASSES\DOGMAGNET.CPP|G:\FANSHAWE\CONFIGANDDEPLOY\LOCALIZATION\CLASSES\INVISIBILEALLIGATORS.CPP
G:\FANSHAWE\CONFIGANDDEPLOY\LOCALIZATION\LOCALIZATIONPROJECT\DEBUG.WIN32\INVISIBILEALLIGATORS.OBJ
G:\FANSHAWE\CONFIGANDDEPLOY\LOCALIZATION\LOCALIZATIONPROJECT\DEBUG.WIN32\DOGMAGNET.OBJ
^G:\FANSHAWE\CONFIGANDDEPLOY\LOCALIZATION\CLASSES\MAINMENU.CPP|G:\FANSHAWE\CONFIGANDDEPLOY\LOCALIZATION\CLASSES\PIRATEMONKEY.CPP
G:\FANSHAWE\CONFIGANDDEPLOY\LOCALIZATION\LOCALIZATIONPROJECT\DEBUG.WIN32\MAINMENU.OBJ
G:\FANSHAWE\CONFIGANDDEPLOY\LOCALIZATION\LOCALIZATIONPROJECT\DEBUG.WIN32\PIRATEMONKEY.OBJ
^G:\FANSHAWE\CONFIGANDDEPLOY\LOCALIZATION\CLASSES\DOGMAGNET.CPP|G:\FANSHAWE\CONFIGANDDEPLOY\LOCALIZATION\CLASSES\INVISIBILEALLIGATORS.CPP|G:\FANSHAWE\CONFIGANDDEPLOY\LOCALIZATION\CLASSES\MAINMENU.CPP|G:\FANSHAWE\CONFIGANDDEPLOY\LOCALIZATION\CLASSES\PIRATEMONKEY.CPP
G:\FANSHAWE\CONFIGANDDEPLOY\LOCALIZATION\LOCALIZATIONPROJECT\DEBUG.WIN32\DOGMAGNET.OBJ
G:\FANSHAWE\CONFIGANDDEPLOY\LOCALIZATION\LOCALIZATIONPROJECT\DEBUG.WIN32\INVISIBILEALLIGATORS.OBJ
G:\FANSHAWE\CONFIGANDDEPLOY\LOCALIZATION\LOCALIZATIONPROJECT\DEBUG.WIN32\PIRATEMONKEY.OBJ
G:\FANSHAWE\CONFIGANDDEPLOY\LOCALIZATION\LOCALIZATIONPROJECT\DEBUG.WIN32\MAINMENU.OBJ
^G:\FANSHAWE\CONFIGANDDEPLOY\LOCALIZATION\CLASSES\INVISIBILEALLIGATORS.CPP|G:\FANSHAWE\CONFIGANDDEPLOY\LOCALIZATION\CLASSES\PIRATEMONKEY.CPP
G:\FANSHAWE\CONFIGANDDEPLOY\LOCALIZATION\LOCALIZATIONPROJECT\DEBUG.WIN32\INVISIBILEALLIGATORS.OBJ
G:\FANSHAWE\CONFIGANDDEPLOY\LOCALIZATION\LOCALIZATIONPROJECT\DEBUG.WIN32\PIRATEMONKEY.OBJ
^G:\FANSHAWE\CONFIGANDDEPLOY\LOCALIZATION\CLASSES\DOGMAGNET.CPP|G:\FANSHAWE\CONFIGANDDEPLOY\LOCALIZATION\CLASSES\INVISIBILEALLIGATORS.CPP|G:\FANSHAWE\CONFIGANDDEPLOY\LOCALIZATION\CLASSES\PIRATEMONKEY.CPP
G:\FANSHAWE\CONFIGANDDEPLOY\LOCALIZATION\LOCALIZATIONPROJECT\DEBUG.WIN32\DOGMAGNET.OBJ
G:\FANSHAWE\CONFIGANDDEPLOY\LOCALIZATION\LOCALIZATIONPROJECT\DEBUG.WIN32\INVISIBILEALLIGATORS.OBJ
G:\FANSHAWE\CONFIGANDDEPLOY\LOCALIZATION\LOCALIZATIONPROJECT\DEBUG.WIN32\PIRATEMONKEY.OBJ
^G:\FANSHAWE\CONFIGANDDEPLOY\LOCALIZATION\CLASSES\DOGMAGNET.CPP|G:\FANSHAWE\CONFIGANDDEPLOY\LOCALIZATION\CLASSES\INVISIBILEALLIGATORS.CPP|G:\FANSHAWE\CONFIGANDDEPLOY\LOCALIZATION\CLASSES\MAINMENU.CPP|G:\FANSHAWE\CONFIGANDDEPLOY\LOCALIZATION\CLASSES\PIRATEMONKEY.CPP|G:\FANSHAWE\CONFIGANDDEPLOY\LOCALIZATION\CLASSES\XMLTOOL.CPP
G:\FANSHAWE\CONFIGANDDEPLOY\LOCALIZATION\LOCALIZATIONPROJECT\DEBUG.WIN32\XMLTOOL.OBJ
G:\FANSHAWE\CONFIGANDDEPLOY\LOCALIZATION\LOCALIZATIONPROJECT\DEBUG.WIN32\PIRATEMONKEY.OBJ
G:\FANSHAWE\CONFIGANDDEPLOY\LOCALIZATION\LOCALIZATIONPROJECT\DEBUG.WIN32\MAINMENU.OBJ
G:\FANSHAWE\CONFIGANDDEPLOY\LOCALIZATION\LOCALIZATIONPROJECT\DEBUG.WIN32\DOGMAGNET.OBJ
G:\FANSHAWE\CONFIGANDDEPLOY\LOCALIZATION\LOCALIZATIONPROJECT\DEBUG.WIN32\INVISIBILEALLIGATORS.OBJ
^G:\FANSHAWE\CONFIGANDDEPLOY\LOCALIZATION\CLASSES\XMLTOOL.CPP
G:\FANSHAWE\CONFIGANDDEPLOY\LOCALIZATION\LOCALIZATIONPROJECT\DEBUG.WIN32\VC120.PDB
^G:\FANSHAWE\CONFIGANDDEPLOY\LOCALIZATION\CLASSES\DOGMAGNET.CPP
G:\FANSHAWE\CONFIGANDDEPLOY\LOCALIZATION\LOCALIZATIONPROJECT\DEBUG.WIN32\VC120.PDB
^G:\FANSHAWE\CONFIGANDDEPLOY\LOCALIZATION\CLASSES\MAINMENU.CPP
G:\FANSHAWE\CONFIGANDDEPLOY\LOCALIZATION\LOCALIZATIONPROJECT\DEBUG.WIN32\VC120.PDB
^G:\FANSHAWE\CONFIGANDDEPLOY\LOCALIZATION\CLASSES\PIRATEMONKEY.CPP
G:\FANSHAWE\CONFIGANDDEPLOY\LOCALIZATION\LOCALIZATIONPROJECT\DEBUG.WIN32\VC120.PDB
^G:\FANSHAWE\CONFIGANDDEPLOY\LOCALIZATION\CLASSES\INVISIBILEALLIGATORS.CPP
G:\FANSHAWE\CONFIGANDDEPLOY\LOCALIZATION\LOCALIZATIONPROJECT\DEBUG.WIN32\VC120.PDB
G:\FANSHAWE\CONFIGANDDEPLOY\LOCALIZATION\LOCALIZATIONPROJECT\DEBUG.WIN32\VC120.IDB
G:\FANSHAWE\CONFIGANDDEPLOY\LOCALIZATION\LOCALIZATIONPROJECT\DEBUG.WIN32\INVISIBILEALLIGATORS.OBJ
