^G:\FANSHAWE\CONFIGANDDEPLOY\LOCALIZATIONPROJECT\LOCALIZATIONPROJECT\CLASSES\APPDELEGATE.CPP|G:\FANSHAWE\CONFIGANDDEPLOY\LOCALIZATIONPROJECT\LOCALIZATIONPROJECT\CLASSES\HELLOWORLDSCENE.CPP|G:\FANSHAWE\CONFIGANDDEPLOY\LOCALIZATIONPROJECT\LOCALIZATIONPROJECT\LOCALIZATIONPROJECT\MAIN.CPP
G:\FANSHAWE\CONFIGANDDEPLOY\LOCALIZATIONPROJECT\LOCALIZATIONPROJECT\LOCALIZATIONPROJECT\DEBUG.WIN32\MAIN.OBJ
G:\FANSHAWE\CONFIGANDDEPLOY\LOCALIZATIONPROJECT\LOCALIZATIONPROJECT\LOCALIZATIONPROJECT\DEBUG.WIN32\APPDELEGATE.OBJ
G:\FANSHAWE\CONFIGANDDEPLOY\LOCALIZATIONPROJECT\LOCALIZATIONPROJECT\LOCALIZATIONPROJECT\DEBUG.WIN32\HELLOWORLDSCENE.OBJ
^G:\FANSHAWE\CONFIGANDDEPLOY\LOCALIZATIONPROJECT\LOCALIZATIONPROJECT\CLASSES\APPDELEGATE.CPP
G:\FANSHAWE\CONFIGANDDEPLOY\LOCALIZATIONPROJECT\LOCALIZATIONPROJECT\LOCALIZATIONPROJECT\DEBUG.WIN32\VC110.PDB
^G:\FANSHAWE\CONFIGANDDEPLOY\LOCALIZATIONPROJECT\LOCALIZATIONPROJECT\CLASSES\HELLOWORLDSCENE.CPP
G:\FANSHAWE\CONFIGANDDEPLOY\LOCALIZATIONPROJECT\LOCALIZATIONPROJECT\LOCALIZATIONPROJECT\DEBUG.WIN32\VC110.PDB
^G:\FANSHAWE\CONFIGANDDEPLOY\LOCALIZATIONPROJECT\LOCALIZATIONPROJECT\LOCALIZATIONPROJECT\MAIN.CPP
G:\FANSHAWE\CONFIGANDDEPLOY\LOCALIZATIONPROJECT\LOCALIZATIONPROJECT\LOCALIZATIONPROJECT\DEBUG.WIN32\VC110.PDB
