^G:\FANSHAWE\CONFIGANDDEPLOY\XMLPROJECT\PROJ.WIN32\DEBUG.WIN32\APPDELEGATE.OBJ|G:\FANSHAWE\CONFIGANDDEPLOY\XMLPROJECT\PROJ.WIN32\DEBUG.WIN32\GAME.RES|G:\FANSHAWE\CONFIGANDDEPLOY\XMLPROJECT\PROJ.WIN32\DEBUG.WIN32\LIBBOX2D.LIB|G:\FANSHAWE\CONFIGANDDEPLOY\XMLPROJECT\PROJ.WIN32\DEBUG.WIN32\LIBCOCOS2D.LIB|G:\FANSHAWE\CONFIGANDDEPLOY\XMLPROJECT\PROJ.WIN32\DEBUG.WIN32\LIBSPINE.LIB|G:\FANSHAWE\CONFIGANDDEPLOY\XMLPROJECT\PROJ.WIN32\DEBUG.WIN32\MAIN.OBJ|G:\FANSHAWE\CONFIGANDDEPLOY\XMLPROJECT\PROJ.WIN32\DEBUG.WIN32\SCENEONE.OBJ|G:\FANSHAWE\CONFIGANDDEPLOY\XMLPROJECT\PROJ.WIN32\DEBUG.WIN32\SCENETHREE.OBJ|G:\FANSHAWE\CONFIGANDDEPLOY\XMLPROJECT\PROJ.WIN32\DEBUG.WIN32\SCENETWO.OBJ|G:\FANSHAWE\CONFIGANDDEPLOY\XMLPROJECT\PROJ.WIN32\DEBUG.WIN32\XMLTOOL.OBJ
G:\FANSHAWE\CONFIGANDDEPLOY\XMLPROJECT\PROJ.WIN32\DEBUG.WIN32\MYCPPGAME.ILK
G:\FANSHAWE\CONFIGANDDEPLOY\XMLPROJECT\PROJ.WIN32\DEBUG.WIN32\MYCPPGAME.EXE
G:\FANSHAWE\CONFIGANDDEPLOY\XMLPROJECT\PROJ.WIN32\DEBUG.WIN32\MYCPPGAME.PDB
