^G:\FANSHAWE\CONFIGANDDEPLOY\XMLPROJECT\COCOS2D\COCOS\EDITOR-SUPPORT\SPINE\ANIMATION.C|G:\FANSHAWE\CONFIGANDDEPLOY\XMLPROJECT\COCOS2D\COCOS\EDITOR-SUPPORT\SPINE\ANIMATIONSTATE.C|G:\FANSHAWE\CONFIGANDDEPLOY\XMLPROJECT\COCOS2D\COCOS\EDITOR-SUPPORT\SPINE\ANIMATIONSTATEDATA.C|G:\FANSHAWE\CONFIGANDDEPLOY\XMLPROJECT\COCOS2D\COCOS\EDITOR-SUPPORT\SPINE\ATLAS.C|G:\FANSHAWE\CONFIGANDDEPLOY\XMLPROJECT\COCOS2D\COCOS\EDITOR-SUPPORT\SPINE\ATLASATTACHMENTLOADER.C|G:\FANSHAWE\CONFIGANDDEPLOY\XMLPROJECT\COCOS2D\COCOS\EDITOR-SUPPORT\SPINE\ATTACHMENT.C|G:\FANSHAWE\CONFIGANDDEPLOY\XMLPROJECT\COCOS2D\COCOS\EDITOR-SUPPORT\SPINE\ATTACHMENTLOADER.C|G:\FANSHAWE\CONFIGANDDEPLOY\XMLPROJECT\COCOS2D\COCOS\EDITOR-SUPPORT\SPINE\BONE.C|G:\FANSHAWE\CONFIGANDDEPLOY\XMLPROJECT\COCOS2D\COCOS\EDITOR-SUPPORT\SPINE\BONEDATA.C|G:\FANSHAWE\CONFIGANDDEPLOY\XMLPROJECT\COCOS2D\COCOS\EDITOR-SUPPORT\SPINE\BOUNDINGBOXATTACHMENT.C|G:\FANSHAWE\CONFIGANDDEPLOY\XMLPROJECT\COCOS2D\COCOS\EDITOR-SUPPORT\SPINE\EVENT.C|G:\FANSHAWE\CONFIGANDDEPLOY\XMLPROJECT\COCOS2D\COCOS\EDITOR-SUPPORT\SPINE\EVENTDATA.C|G:\FANSHAWE\CONFIGANDDEPLOY\XMLPROJECT\COCOS2D\COCOS\EDITOR-SUPPORT\SPINE\EXTENSION.C|G:\FANSHAWE\CONFIGANDDEPLOY\XMLPROJECT\COCOS2D\COCOS\EDITOR-SUPPORT\SPINE\IKCONSTRAINT.C|G:\FANSHAWE\CONFIGANDDEPLOY\XMLPROJECT\COCOS2D\COCOS\EDITOR-SUPPORT\SPINE\IKCONSTRAINTDATA.C|G:\FANSHAWE\CONFIGANDDEPLOY\XMLPROJECT\COCOS2D\COCOS\EDITOR-SUPPORT\SPINE\JSON.C|G:\FANSHAWE\CONFIGANDDEPLOY\XMLPROJECT\COCOS2D\COCOS\EDITOR-SUPPORT\SPINE\MESHATTACHMENT.C|G:\FANSHAWE\CONFIGANDDEPLOY\XMLPROJECT\COCOS2D\COCOS\EDITOR-SUPPORT\SPINE\REGIONATTACHMENT.C|G:\FANSHAWE\CONFIGANDDEPLOY\XMLPROJECT\COCOS2D\COCOS\EDITOR-SUPPORT\SPINE\SKELETON.C|G:\FANSHAWE\CONFIGANDDEPLOY\XMLPROJECT\COCOS2D\COCOS\EDITOR-SUPPORT\SPINE\SKELETONBOUNDS.C|G:\FANSHAWE\CONFIGANDDEPLOY\XMLPROJECT\COCOS2D\COCOS\EDITOR-SUPPORT\SPINE\SKELETONDATA.C|G:\FANSHAWE\CONFIGANDDEPLOY\XMLPROJECT\COCOS2D\COCOS\EDITOR-SUPPORT\SPINE\SKELETONJSON.C|G:\FANSHAWE\CONFIGANDDEPLOY\XMLPROJECT\COCOS2D\COCOS\EDITOR-SUPPORT\SPINE\SKIN.C|G:\FANSHAWE\CONFIGANDDEPLOY\XMLPROJECT\COCOS2D\COCOS\EDITOR-SUPPORT\SPINE\SKINNEDMESHATTACHMENT.C|G:\FANSHAWE\CONFIGANDDEPLOY\XMLPROJECT\COCOS2D\COCOS\EDITOR-SUPPORT\SPINE\SLOT.C|G:\FANSHAWE\CONFIGANDDEPLOY\XMLPROJECT\COCOS2D\COCOS\EDITOR-SUPPORT\SPINE\SLOTDATA.C
G:\FANSHAWE\CONFIGANDDEPLOY\XMLPROJECT\COCOS2D\COCOS\EDITOR-SUPPORT\SPINE\PROJ.WIN32\DEBUG.WIN32\ATLASATTACHMENTLOADER.OBJ
G:\FANSHAWE\CONFIGANDDEPLOY\XMLPROJECT\COCOS2D\COCOS\EDITOR-SUPPORT\SPINE\PROJ.WIN32\DEBUG.WIN32\EXTENSION.OBJ
G:\FANSHAWE\CONFIGANDDEPLOY\XMLPROJECT\COCOS2D\COCOS\EDITOR-SUPPORT\SPINE\PROJ.WIN32\DEBUG.WIN32\SKELETONDATA.OBJ
G:\FANSHAWE\CONFIGANDDEPLOY\XMLPROJECT\COCOS2D\COCOS\EDITOR-SUPPORT\SPINE\PROJ.WIN32\DEBUG.WIN32\ANIMATIONSTATEDATA.OBJ
G:\FANSHAWE\CONFIGANDDEPLOY\XMLPROJECT\COCOS2D\COCOS\EDITOR-SUPPORT\SPINE\PROJ.WIN32\DEBUG.WIN32\EVENTDATA.OBJ
G:\FANSHAWE\CONFIGANDDEPLOY\XMLPROJECT\COCOS2D\COCOS\EDITOR-SUPPORT\SPINE\PROJ.WIN32\DEBUG.WIN32\SKELETON.OBJ
G:\FANSHAWE\CONFIGANDDEPLOY\XMLPROJECT\COCOS2D\COCOS\EDITOR-SUPPORT\SPINE\PROJ.WIN32\DEBUG.WIN32\ATTACHMENT.OBJ
G:\FANSHAWE\CONFIGANDDEPLOY\XMLPROJECT\COCOS2D\COCOS\EDITOR-SUPPORT\SPINE\PROJ.WIN32\DEBUG.WIN32\BONEDATA.OBJ
G:\FANSHAWE\CONFIGANDDEPLOY\XMLPROJECT\COCOS2D\COCOS\EDITOR-SUPPORT\SPINE\PROJ.WIN32\DEBUG.WIN32\MESHATTACHMENT.OBJ
G:\FANSHAWE\CONFIGANDDEPLOY\XMLPROJECT\COCOS2D\COCOS\EDITOR-SUPPORT\SPINE\PROJ.WIN32\DEBUG.WIN32\SKINNEDMESHATTACHMENT.OBJ
G:\FANSHAWE\CONFIGANDDEPLOY\XMLPROJECT\COCOS2D\COCOS\EDITOR-SUPPORT\SPINE\PROJ.WIN32\DEBUG.WIN32\ATLAS.OBJ
G:\FANSHAWE\CONFIGANDDEPLOY\XMLPROJECT\COCOS2D\COCOS\EDITOR-SUPPORT\SPINE\PROJ.WIN32\DEBUG.WIN32\IKCONSTRAINT.OBJ
G:\FANSHAWE\CONFIGANDDEPLOY\XMLPROJECT\COCOS2D\COCOS\EDITOR-SUPPORT\SPINE\PROJ.WIN32\DEBUG.WIN32\SKIN.OBJ
G:\FANSHAWE\CONFIGANDDEPLOY\XMLPROJECT\COCOS2D\COCOS\EDITOR-SUPPORT\SPINE\PROJ.WIN32\DEBUG.WIN32\ANIMATION.OBJ
G:\FANSHAWE\CONFIGANDDEPLOY\XMLPROJECT\COCOS2D\COCOS\EDITOR-SUPPORT\SPINE\PROJ.WIN32\DEBUG.WIN32\JSON.OBJ
G:\FANSHAWE\CONFIGANDDEPLOY\XMLPROJECT\COCOS2D\COCOS\EDITOR-SUPPORT\SPINE\PROJ.WIN32\DEBUG.WIN32\SLOT.OBJ
G:\FANSHAWE\CONFIGANDDEPLOY\XMLPROJECT\COCOS2D\COCOS\EDITOR-SUPPORT\SPINE\PROJ.WIN32\DEBUG.WIN32\ATTACHMENTLOADER.OBJ
G:\FANSHAWE\CONFIGANDDEPLOY\XMLPROJECT\COCOS2D\COCOS\EDITOR-SUPPORT\SPINE\PROJ.WIN32\DEBUG.WIN32\BOUNDINGBOXATTACHMENT.OBJ
G:\FANSHAWE\CONFIGANDDEPLOY\XMLPROJECT\COCOS2D\COCOS\EDITOR-SUPPORT\SPINE\PROJ.WIN32\DEBUG.WIN32\SKELETONBOUNDS.OBJ
G:\FANSHAWE\CONFIGANDDEPLOY\XMLPROJECT\COCOS2D\COCOS\EDITOR-SUPPORT\SPINE\PROJ.WIN32\DEBUG.WIN32\ANIMATIONSTATE.OBJ
G:\FANSHAWE\CONFIGANDDEPLOY\XMLPROJECT\COCOS2D\COCOS\EDITOR-SUPPORT\SPINE\PROJ.WIN32\DEBUG.WIN32\IKCONSTRAINTDATA.OBJ
G:\FANSHAWE\CONFIGANDDEPLOY\XMLPROJECT\COCOS2D\COCOS\EDITOR-SUPPORT\SPINE\PROJ.WIN32\DEBUG.WIN32\SKELETONJSON.OBJ
G:\FANSHAWE\CONFIGANDDEPLOY\XMLPROJECT\COCOS2D\COCOS\EDITOR-SUPPORT\SPINE\PROJ.WIN32\DEBUG.WIN32\BONE.OBJ
G:\FANSHAWE\CONFIGANDDEPLOY\XMLPROJECT\COCOS2D\COCOS\EDITOR-SUPPORT\SPINE\PROJ.WIN32\DEBUG.WIN32\EVENT.OBJ
G:\FANSHAWE\CONFIGANDDEPLOY\XMLPROJECT\COCOS2D\COCOS\EDITOR-SUPPORT\SPINE\PROJ.WIN32\DEBUG.WIN32\REGIONATTACHMENT.OBJ
G:\FANSHAWE\CONFIGANDDEPLOY\XMLPROJECT\COCOS2D\COCOS\EDITOR-SUPPORT\SPINE\PROJ.WIN32\DEBUG.WIN32\SLOTDATA.OBJ
^G:\FANSHAWE\CONFIGANDDEPLOY\XMLPROJECT\COCOS2D\COCOS\EDITOR-SUPPORT\SPINE\ANIMATION.C
G:\FANSHAWE\CONFIGANDDEPLOY\XMLPROJECT\COCOS2D\COCOS\EDITOR-SUPPORT\SPINE\PROJ.WIN32\DEBUG.WIN32\VC120.PDB
^G:\FANSHAWE\CONFIGANDDEPLOY\XMLPROJECT\COCOS2D\COCOS\EDITOR-SUPPORT\SPINE\ANIMATIONSTATE.C
G:\FANSHAWE\CONFIGANDDEPLOY\XMLPROJECT\COCOS2D\COCOS\EDITOR-SUPPORT\SPINE\PROJ.WIN32\DEBUG.WIN32\VC120.PDB
^G:\FANSHAWE\CONFIGANDDEPLOY\XMLPROJECT\COCOS2D\COCOS\EDITOR-SUPPORT\SPINE\ANIMATIONSTATEDATA.C
G:\FANSHAWE\CONFIGANDDEPLOY\XMLPROJECT\COCOS2D\COCOS\EDITOR-SUPPORT\SPINE\PROJ.WIN32\DEBUG.WIN32\VC120.PDB
^G:\FANSHAWE\CONFIGANDDEPLOY\XMLPROJECT\COCOS2D\COCOS\EDITOR-SUPPORT\SPINE\ATLAS.C
G:\FANSHAWE\CONFIGANDDEPLOY\XMLPROJECT\COCOS2D\COCOS\EDITOR-SUPPORT\SPINE\PROJ.WIN32\DEBUG.WIN32\VC120.PDB
^G:\FANSHAWE\CONFIGANDDEPLOY\XMLPROJECT\COCOS2D\COCOS\EDITOR-SUPPORT\SPINE\ATLASATTACHMENTLOADER.C
G:\FANSHAWE\CONFIGANDDEPLOY\XMLPROJECT\COCOS2D\COCOS\EDITOR-SUPPORT\SPINE\PROJ.WIN32\DEBUG.WIN32\VC120.PDB
^G:\FANSHAWE\CONFIGANDDEPLOY\XMLPROJECT\COCOS2D\COCOS\EDITOR-SUPPORT\SPINE\ATTACHMENT.C
G:\FANSHAWE\CONFIGANDDEPLOY\XMLPROJECT\COCOS2D\COCOS\EDITOR-SUPPORT\SPINE\PROJ.WIN32\DEBUG.WIN32\VC120.PDB
^G:\FANSHAWE\CONFIGANDDEPLOY\XMLPROJECT\COCOS2D\COCOS\EDITOR-SUPPORT\SPINE\ATTACHMENTLOADER.C
G:\FANSHAWE\CONFIGANDDEPLOY\XMLPROJECT\COCOS2D\COCOS\EDITOR-SUPPORT\SPINE\PROJ.WIN32\DEBUG.WIN32\VC120.PDB
^G:\FANSHAWE\CONFIGANDDEPLOY\XMLPROJECT\COCOS2D\COCOS\EDITOR-SUPPORT\SPINE\BONE.C
G:\FANSHAWE\CONFIGANDDEPLOY\XMLPROJECT\COCOS2D\COCOS\EDITOR-SUPPORT\SPINE\PROJ.WIN32\DEBUG.WIN32\VC120.PDB
^G:\FANSHAWE\CONFIGANDDEPLOY\XMLPROJECT\COCOS2D\COCOS\EDITOR-SUPPORT\SPINE\BONEDATA.C
G:\FANSHAWE\CONFIGANDDEPLOY\XMLPROJECT\COCOS2D\COCOS\EDITOR-SUPPORT\SPINE\PROJ.WIN32\DEBUG.WIN32\VC120.PDB
^G:\FANSHAWE\CONFIGANDDEPLOY\XMLPROJECT\COCOS2D\COCOS\EDITOR-SUPPORT\SPINE\BOUNDINGBOXATTACHMENT.C
G:\FANSHAWE\CONFIGANDDEPLOY\XMLPROJECT\COCOS2D\COCOS\EDITOR-SUPPORT\SPINE\PROJ.WIN32\DEBUG.WIN32\VC120.PDB
^G:\FANSHAWE\CONFIGANDDEPLOY\XMLPROJECT\COCOS2D\COCOS\EDITOR-SUPPORT\SPINE\EVENT.C
G:\FANSHAWE\CONFIGANDDEPLOY\XMLPROJECT\COCOS2D\COCOS\EDITOR-SUPPORT\SPINE\PROJ.WIN32\DEBUG.WIN32\VC120.PDB
^G:\FANSHAWE\CONFIGANDDEPLOY\XMLPROJECT\COCOS2D\COCOS\EDITOR-SUPPORT\SPINE\EVENTDATA.C
G:\FANSHAWE\CONFIGANDDEPLOY\XMLPROJECT\COCOS2D\COCOS\EDITOR-SUPPORT\SPINE\PROJ.WIN32\DEBUG.WIN32\VC120.PDB
^G:\FANSHAWE\CONFIGANDDEPLOY\XMLPROJECT\COCOS2D\COCOS\EDITOR-SUPPORT\SPINE\EXTENSION.C
G:\FANSHAWE\CONFIGANDDEPLOY\XMLPROJECT\COCOS2D\COCOS\EDITOR-SUPPORT\SPINE\PROJ.WIN32\DEBUG.WIN32\VC120.PDB
^G:\FANSHAWE\CONFIGANDDEPLOY\XMLPROJECT\COCOS2D\COCOS\EDITOR-SUPPORT\SPINE\IKCONSTRAINT.C
G:\FANSHAWE\CONFIGANDDEPLOY\XMLPROJECT\COCOS2D\COCOS\EDITOR-SUPPORT\SPINE\PROJ.WIN32\DEBUG.WIN32\VC120.PDB
^G:\FANSHAWE\CONFIGANDDEPLOY\XMLPROJECT\COCOS2D\COCOS\EDITOR-SUPPORT\SPINE\IKCONSTRAINTDATA.C
G:\FANSHAWE\CONFIGANDDEPLOY\XMLPROJECT\COCOS2D\COCOS\EDITOR-SUPPORT\SPINE\PROJ.WIN32\DEBUG.WIN32\VC120.PDB
^G:\FANSHAWE\CONFIGANDDEPLOY\XMLPROJECT\COCOS2D\COCOS\EDITOR-SUPPORT\SPINE\JSON.C
G:\FANSHAWE\CONFIGANDDEPLOY\XMLPROJECT\COCOS2D\COCOS\EDITOR-SUPPORT\SPINE\PROJ.WIN32\DEBUG.WIN32\VC120.PDB
^G:\FANSHAWE\CONFIGANDDEPLOY\XMLPROJECT\COCOS2D\COCOS\EDITOR-SUPPORT\SPINE\MESHATTACHMENT.C
G:\FANSHAWE\CONFIGANDDEPLOY\XMLPROJECT\COCOS2D\COCOS\EDITOR-SUPPORT\SPINE\PROJ.WIN32\DEBUG.WIN32\VC120.PDB
^G:\FANSHAWE\CONFIGANDDEPLOY\XMLPROJECT\COCOS2D\COCOS\EDITOR-SUPPORT\SPINE\REGIONATTACHMENT.C
G:\FANSHAWE\CONFIGANDDEPLOY\XMLPROJECT\COCOS2D\COCOS\EDITOR-SUPPORT\SPINE\PROJ.WIN32\DEBUG.WIN32\VC120.PDB
^G:\FANSHAWE\CONFIGANDDEPLOY\XMLPROJECT\COCOS2D\COCOS\EDITOR-SUPPORT\SPINE\SKELETON.C
G:\FANSHAWE\CONFIGANDDEPLOY\XMLPROJECT\COCOS2D\COCOS\EDITOR-SUPPORT\SPINE\PROJ.WIN32\DEBUG.WIN32\VC120.PDB
^G:\FANSHAWE\CONFIGANDDEPLOY\XMLPROJECT\COCOS2D\COCOS\EDITOR-SUPPORT\SPINE\SKELETONBOUNDS.C
G:\FANSHAWE\CONFIGANDDEPLOY\XMLPROJECT\COCOS2D\COCOS\EDITOR-SUPPORT\SPINE\PROJ.WIN32\DEBUG.WIN32\VC120.PDB
^G:\FANSHAWE\CONFIGANDDEPLOY\XMLPROJECT\COCOS2D\COCOS\EDITOR-SUPPORT\SPINE\SKELETONDATA.C
G:\FANSHAWE\CONFIGANDDEPLOY\XMLPROJECT\COCOS2D\COCOS\EDITOR-SUPPORT\SPINE\PROJ.WIN32\DEBUG.WIN32\VC120.PDB
^G:\FANSHAWE\CONFIGANDDEPLOY\XMLPROJECT\COCOS2D\COCOS\EDITOR-SUPPORT\SPINE\SKELETONJSON.C
G:\FANSHAWE\CONFIGANDDEPLOY\XMLPROJECT\COCOS2D\COCOS\EDITOR-SUPPORT\SPINE\PROJ.WIN32\DEBUG.WIN32\VC120.PDB
^G:\FANSHAWE\CONFIGANDDEPLOY\XMLPROJECT\COCOS2D\COCOS\EDITOR-SUPPORT\SPINE\SKIN.C
G:\FANSHAWE\CONFIGANDDEPLOY\XMLPROJECT\COCOS2D\COCOS\EDITOR-SUPPORT\SPINE\PROJ.WIN32\DEBUG.WIN32\VC120.PDB
^G:\FANSHAWE\CONFIGANDDEPLOY\XMLPROJECT\COCOS2D\COCOS\EDITOR-SUPPORT\SPINE\SKINNEDMESHATTACHMENT.C
G:\FANSHAWE\CONFIGANDDEPLOY\XMLPROJECT\COCOS2D\COCOS\EDITOR-SUPPORT\SPINE\PROJ.WIN32\DEBUG.WIN32\VC120.PDB
^G:\FANSHAWE\CONFIGANDDEPLOY\XMLPROJECT\COCOS2D\COCOS\EDITOR-SUPPORT\SPINE\SLOT.C
G:\FANSHAWE\CONFIGANDDEPLOY\XMLPROJECT\COCOS2D\COCOS\EDITOR-SUPPORT\SPINE\PROJ.WIN32\DEBUG.WIN32\VC120.PDB
^G:\FANSHAWE\CONFIGANDDEPLOY\XMLPROJECT\COCOS2D\COCOS\EDITOR-SUPPORT\SPINE\SLOTDATA.C
G:\FANSHAWE\CONFIGANDDEPLOY\XMLPROJECT\COCOS2D\COCOS\EDITOR-SUPPORT\SPINE\PROJ.WIN32\DEBUG.WIN32\VC120.PDB
^G:\FANSHAWE\CONFIGANDDEPLOY\XMLPROJECT\COCOS2D\COCOS\EDITOR-SUPPORT\SPINE\POLYGONBATCH.CPP|G:\FANSHAWE\CONFIGANDDEPLOY\XMLPROJECT\COCOS2D\COCOS\EDITOR-SUPPORT\SPINE\SKELETONANIMATION.CPP|G:\FANSHAWE\CONFIGANDDEPLOY\XMLPROJECT\COCOS2D\COCOS\EDITOR-SUPPORT\SPINE\SKELETONRENDERER.CPP|G:\FANSHAWE\CONFIGANDDEPLOY\XMLPROJECT\COCOS2D\COCOS\EDITOR-SUPPORT\SPINE\SPINE-COCOS2DX.CPP
G:\FANSHAWE\CONFIGANDDEPLOY\XMLPROJECT\COCOS2D\COCOS\EDITOR-SUPPORT\SPINE\PROJ.WIN32\DEBUG.WIN32\SPINE-COCOS2DX.OBJ
G:\FANSHAWE\CONFIGANDDEPLOY\XMLPROJECT\COCOS2D\COCOS\EDITOR-SUPPORT\SPINE\PROJ.WIN32\DEBUG.WIN32\SKELETONANIMATION.OBJ
G:\FANSHAWE\CONFIGANDDEPLOY\XMLPROJECT\COCOS2D\COCOS\EDITOR-SUPPORT\SPINE\PROJ.WIN32\DEBUG.WIN32\POLYGONBATCH.OBJ
G:\FANSHAWE\CONFIGANDDEPLOY\XMLPROJECT\COCOS2D\COCOS\EDITOR-SUPPORT\SPINE\PROJ.WIN32\DEBUG.WIN32\SKELETONRENDERER.OBJ
^G:\FANSHAWE\CONFIGANDDEPLOY\XMLPROJECT\COCOS2D\COCOS\EDITOR-SUPPORT\SPINE\POLYGONBATCH.CPP
G:\FANSHAWE\CONFIGANDDEPLOY\XMLPROJECT\COCOS2D\COCOS\EDITOR-SUPPORT\SPINE\PROJ.WIN32\DEBUG.WIN32\VC120.PDB
^G:\FANSHAWE\CONFIGANDDEPLOY\XMLPROJECT\COCOS2D\COCOS\EDITOR-SUPPORT\SPINE\SKELETONANIMATION.CPP
G:\FANSHAWE\CONFIGANDDEPLOY\XMLPROJECT\COCOS2D\COCOS\EDITOR-SUPPORT\SPINE\PROJ.WIN32\DEBUG.WIN32\VC120.PDB
^G:\FANSHAWE\CONFIGANDDEPLOY\XMLPROJECT\COCOS2D\COCOS\EDITOR-SUPPORT\SPINE\SKELETONRENDERER.CPP
G:\FANSHAWE\CONFIGANDDEPLOY\XMLPROJECT\COCOS2D\COCOS\EDITOR-SUPPORT\SPINE\PROJ.WIN32\DEBUG.WIN32\VC120.PDB
^G:\FANSHAWE\CONFIGANDDEPLOY\XMLPROJECT\COCOS2D\COCOS\EDITOR-SUPPORT\SPINE\SPINE-COCOS2DX.CPP
G:\FANSHAWE\CONFIGANDDEPLOY\XMLPROJECT\COCOS2D\COCOS\EDITOR-SUPPORT\SPINE\PROJ.WIN32\DEBUG.WIN32\VC120.PDB
