^G:\FANSHAWE\CONFIGANDDEPLOY\XMLPROJECT\COCOS2D\COCOS\EDITOR-SUPPORT\SPINE\PROJ.WIN32\DEBUG.WIN32\ANIMATION.OBJ|G:\FANSHAWE\CONFIGANDDEPLOY\XMLPROJECT\COCOS2D\COCOS\EDITOR-SUPPORT\SPINE\PROJ.WIN32\DEBUG.WIN32\ANIMATIONSTATE.OBJ|G:\FANSHAWE\CONFIGANDDEPLOY\XMLPROJECT\COCOS2D\COCOS\EDITOR-SUPPORT\SPINE\PROJ.WIN32\DEBUG.WIN32\ANIMATIONSTATEDATA.OBJ|G:\FANSHAWE\CONFIGANDDEPLOY\XMLPROJECT\COCOS2D\COCOS\EDITOR-SUPPORT\SPINE\PROJ.WIN32\DEBUG.WIN32\ATLAS.OBJ|G:\FANSHAWE\CONFIGANDDEPLOY\XMLPROJECT\COCOS2D\COCOS\EDITOR-SUPPORT\SPINE\PROJ.WIN32\DEBUG.WIN32\ATLASATTACHMENTLOADER.OBJ|G:\FANSHAWE\CONFIGANDDEPLOY\XMLPROJECT\COCOS2D\COCOS\EDITOR-SUPPORT\SPINE\PROJ.WIN32\DEBUG.WIN32\ATTACHMENT.OBJ|G:\FANSHAWE\CONFIGANDDEPLOY\XMLPROJECT\COCOS2D\COCOS\EDITOR-SUPPORT\SPINE\PROJ.WIN32\DEBUG.WIN32\ATTACHMENTLOADER.OBJ|G:\FANSHAWE\CONFIGANDDEPLOY\XMLPROJECT\COCOS2D\COCOS\EDITOR-SUPPORT\SPINE\PROJ.WIN32\DEBUG.WIN32\BONE.OBJ|G:\FANSHAWE\CONFIGANDDEPLOY\XMLPROJECT\COCOS2D\COCOS\EDITOR-SUPPORT\SPINE\PROJ.WIN32\DEBUG.WIN32\BONEDATA.OBJ|G:\FANSHAWE\CONFIGANDDEPLOY\XMLPROJECT\COCOS2D\COCOS\EDITOR-SUPPORT\SPINE\PROJ.WIN32\DEBUG.WIN32\BOUNDINGBOXATTACHMENT.OBJ|G:\FANSHAWE\CONFIGANDDEPLOY\XMLPROJECT\COCOS2D\COCOS\EDITOR-SUPPORT\SPINE\PROJ.WIN32\DEBUG.WIN32\EVENT.OBJ|G:\FANSHAWE\CONFIGANDDEPLOY\XMLPROJECT\COCOS2D\COCOS\EDITOR-SUPPORT\SPINE\PROJ.WIN32\DEBUG.WIN32\EVENTDATA.OBJ|G:\FANSHAWE\CONFIGANDDEPLOY\XMLPROJECT\COCOS2D\COCOS\EDITOR-SUPPORT\SPINE\PROJ.WIN32\DEBUG.WIN32\EXTENSION.OBJ|G:\FANSHAWE\CONFIGANDDEPLOY\XMLPROJECT\COCOS2D\COCOS\EDITOR-SUPPORT\SPINE\PROJ.WIN32\DEBUG.WIN32\IKCONSTRAINT.OBJ|G:\FANSHAWE\CONFIGANDDEPLOY\XMLPROJECT\COCOS2D\COCOS\EDITOR-SUPPORT\SPINE\PROJ.WIN32\DEBUG.WIN32\IKCONSTRAINTDATA.OBJ|G:\FANSHAWE\CONFIGANDDEPLOY\XMLPROJECT\COCOS2D\COCOS\EDITOR-SUPPORT\SPINE\PROJ.WIN32\DEBUG.WIN32\JSON.OBJ|G:\FANSHAWE\CONFIGANDDEPLOY\XMLPROJECT\COCOS2D\COCOS\EDITOR-SUPPORT\SPINE\PROJ.WIN32\DEBUG.WIN32\MESHATTACHMENT.OBJ|G:\FANSHAWE\CONFIGANDDEPLOY\XMLPROJECT\COCOS2D\COCOS\EDITOR-SUPPORT\SPINE\PROJ.WIN32\DEBUG.WIN32\POLYGONBATCH.OBJ|G:\FANSHAWE\CONFIGANDDEPLOY\XMLPROJECT\COCOS2D\COCOS\EDITOR-SUPPORT\SPINE\PROJ.WIN32\DEBUG.WIN32\REGIONATTACHMENT.OBJ|G:\FANSHAWE\CONFIGANDDEPLOY\XMLPROJECT\COCOS2D\COCOS\EDITOR-SUPPORT\SPINE\PROJ.WIN32\DEBUG.WIN32\SKELETON.OBJ|G:\FANSHAWE\CONFIGANDDEPLOY\XMLPROJECT\COCOS2D\COCOS\EDITOR-SUPPORT\SPINE\PROJ.WIN32\DEBUG.WIN32\SKELETONANIMATION.OBJ|G:\FANSHAWE\CONFIGANDDEPLOY\XMLPROJECT\COCOS2D\COCOS\EDITOR-SUPPORT\SPINE\PROJ.WIN32\DEBUG.WIN32\SKELETONBOUNDS.OBJ|G:\FANSHAWE\CONFIGANDDEPLOY\XMLPROJECT\COCOS2D\COCOS\EDITOR-SUPPORT\SPINE\PROJ.WIN32\DEBUG.WIN32\SKELETONDATA.OBJ|G:\FANSHAWE\CONFIGANDDEPLOY\XMLPROJECT\COCOS2D\COCOS\EDITOR-SUPPORT\SPINE\PROJ.WIN32\DEBUG.WIN32\SKELETONJSON.OBJ|G:\FANSHAWE\CONFIGANDDEPLOY\XMLPROJECT\COCOS2D\COCOS\EDITOR-SUPPORT\SPINE\PROJ.WIN32\DEBUG.WIN32\SKELETONRENDERER.OBJ|G:\FANSHAWE\CONFIGANDDEPLOY\XMLPROJECT\COCOS2D\COCOS\EDITOR-SUPPORT\SPINE\PROJ.WIN32\DEBUG.WIN32\SKIN.OBJ|G:\FANSHAWE\CONFIGANDDEPLOY\XMLPROJECT\COCOS2D\COCOS\EDITOR-SUPPORT\SPINE\PROJ.WIN32\DEBUG.WIN32\SKINNEDMESHATTACHMENT.OBJ|G:\FANSHAWE\CONFIGANDDEPLOY\XMLPROJECT\COCOS2D\COCOS\EDITOR-SUPPORT\SPINE\PROJ.WIN32\DEBUG.WIN32\SLOT.OBJ|G:\FANSHAWE\CONFIGANDDEPLOY\XMLPROJECT\COCOS2D\COCOS\EDITOR-SUPPORT\SPINE\PROJ.WIN32\DEBUG.WIN32\SLOTDATA.OBJ|G:\FANSHAWE\CONFIGANDDEPLOY\XMLPROJECT\COCOS2D\COCOS\EDITOR-SUPPORT\SPINE\PROJ.WIN32\DEBUG.WIN32\SPINE-COCOS2DX.OBJ
C:\WINDOWS\SYSTEM32\TZRES.DLL
G:\FANSHAWE\CONFIGANDDEPLOY\XMLPROJECT\COCOS2D\COCOS\EDITOR-SUPPORT\SPINE\PROJ.WIN32\DEBUG.WIN32\ANIMATION.OBJ
G:\FANSHAWE\CONFIGANDDEPLOY\XMLPROJECT\COCOS2D\COCOS\EDITOR-SUPPORT\SPINE\PROJ.WIN32\DEBUG.WIN32\ANIMATIONSTATE.OBJ
G:\FANSHAWE\CONFIGANDDEPLOY\XMLPROJECT\COCOS2D\COCOS\EDITOR-SUPPORT\SPINE\PROJ.WIN32\DEBUG.WIN32\ANIMATIONSTATEDATA.OBJ
G:\FANSHAWE\CONFIGANDDEPLOY\XMLPROJECT\COCOS2D\COCOS\EDITOR-SUPPORT\SPINE\PROJ.WIN32\DEBUG.WIN32\ATLAS.OBJ
G:\FANSHAWE\CONFIGANDDEPLOY\XMLPROJECT\COCOS2D\COCOS\EDITOR-SUPPORT\SPINE\PROJ.WIN32\DEBUG.WIN32\ATLASATTACHMENTLOADER.OBJ
G:\FANSHAWE\CONFIGANDDEPLOY\XMLPROJECT\COCOS2D\COCOS\EDITOR-SUPPORT\SPINE\PROJ.WIN32\DEBUG.WIN32\ATTACHMENT.OBJ
G:\FANSHAWE\CONFIGANDDEPLOY\XMLPROJECT\COCOS2D\COCOS\EDITOR-SUPPORT\SPINE\PROJ.WIN32\DEBUG.WIN32\ATTACHMENTLOADER.OBJ
G:\FANSHAWE\CONFIGANDDEPLOY\XMLPROJECT\COCOS2D\COCOS\EDITOR-SUPPORT\SPINE\PROJ.WIN32\DEBUG.WIN32\BONE.OBJ
G:\FANSHAWE\CONFIGANDDEPLOY\XMLPROJECT\COCOS2D\COCOS\EDITOR-SUPPORT\SPINE\PROJ.WIN32\DEBUG.WIN32\BONEDATA.OBJ
G:\FANSHAWE\CONFIGANDDEPLOY\XMLPROJECT\COCOS2D\COCOS\EDITOR-SUPPORT\SPINE\PROJ.WIN32\DEBUG.WIN32\BOUNDINGBOXATTACHMENT.OBJ
G:\FANSHAWE\CONFIGANDDEPLOY\XMLPROJECT\COCOS2D\COCOS\EDITOR-SUPPORT\SPINE\PROJ.WIN32\DEBUG.WIN32\EVENT.OBJ
G:\FANSHAWE\CONFIGANDDEPLOY\XMLPROJECT\COCOS2D\COCOS\EDITOR-SUPPORT\SPINE\PROJ.WIN32\DEBUG.WIN32\EVENTDATA.OBJ
G:\FANSHAWE\CONFIGANDDEPLOY\XMLPROJECT\COCOS2D\COCOS\EDITOR-SUPPORT\SPINE\PROJ.WIN32\DEBUG.WIN32\EXTENSION.OBJ
G:\FANSHAWE\CONFIGANDDEPLOY\XMLPROJECT\COCOS2D\COCOS\EDITOR-SUPPORT\SPINE\PROJ.WIN32\DEBUG.WIN32\IKCONSTRAINT.OBJ
G:\FANSHAWE\CONFIGANDDEPLOY\XMLPROJECT\COCOS2D\COCOS\EDITOR-SUPPORT\SPINE\PROJ.WIN32\DEBUG.WIN32\IKCONSTRAINTDATA.OBJ
G:\FANSHAWE\CONFIGANDDEPLOY\XMLPROJECT\COCOS2D\COCOS\EDITOR-SUPPORT\SPINE\PROJ.WIN32\DEBUG.WIN32\JSON.OBJ
G:\FANSHAWE\CONFIGANDDEPLOY\XMLPROJECT\COCOS2D\COCOS\EDITOR-SUPPORT\SPINE\PROJ.WIN32\DEBUG.WIN32\MESHATTACHMENT.OBJ
G:\FANSHAWE\CONFIGANDDEPLOY\XMLPROJECT\COCOS2D\COCOS\EDITOR-SUPPORT\SPINE\PROJ.WIN32\DEBUG.WIN32\POLYGONBATCH.OBJ
G:\FANSHAWE\CONFIGANDDEPLOY\XMLPROJECT\COCOS2D\COCOS\EDITOR-SUPPORT\SPINE\PROJ.WIN32\DEBUG.WIN32\REGIONATTACHMENT.OBJ
G:\FANSHAWE\CONFIGANDDEPLOY\XMLPROJECT\COCOS2D\COCOS\EDITOR-SUPPORT\SPINE\PROJ.WIN32\DEBUG.WIN32\SKELETON.OBJ
G:\FANSHAWE\CONFIGANDDEPLOY\XMLPROJECT\COCOS2D\COCOS\EDITOR-SUPPORT\SPINE\PROJ.WIN32\DEBUG.WIN32\SKELETONANIMATION.OBJ
G:\FANSHAWE\CONFIGANDDEPLOY\XMLPROJECT\COCOS2D\COCOS\EDITOR-SUPPORT\SPINE\PROJ.WIN32\DEBUG.WIN32\SKELETONBOUNDS.OBJ
G:\FANSHAWE\CONFIGANDDEPLOY\XMLPROJECT\COCOS2D\COCOS\EDITOR-SUPPORT\SPINE\PROJ.WIN32\DEBUG.WIN32\SKELETONDATA.OBJ
G:\FANSHAWE\CONFIGANDDEPLOY\XMLPROJECT\COCOS2D\COCOS\EDITOR-SUPPORT\SPINE\PROJ.WIN32\DEBUG.WIN32\SKELETONJSON.OBJ
G:\FANSHAWE\CONFIGANDDEPLOY\XMLPROJECT\COCOS2D\COCOS\EDITOR-SUPPORT\SPINE\PROJ.WIN32\DEBUG.WIN32\SKELETONRENDERER.OBJ
G:\FANSHAWE\CONFIGANDDEPLOY\XMLPROJECT\COCOS2D\COCOS\EDITOR-SUPPORT\SPINE\PROJ.WIN32\DEBUG.WIN32\SKIN.OBJ
G:\FANSHAWE\CONFIGANDDEPLOY\XMLPROJECT\COCOS2D\COCOS\EDITOR-SUPPORT\SPINE\PROJ.WIN32\DEBUG.WIN32\SKINNEDMESHATTACHMENT.OBJ
G:\FANSHAWE\CONFIGANDDEPLOY\XMLPROJECT\COCOS2D\COCOS\EDITOR-SUPPORT\SPINE\PROJ.WIN32\DEBUG.WIN32\SLOT.OBJ
G:\FANSHAWE\CONFIGANDDEPLOY\XMLPROJECT\COCOS2D\COCOS\EDITOR-SUPPORT\SPINE\PROJ.WIN32\DEBUG.WIN32\SLOTDATA.OBJ
G:\FANSHAWE\CONFIGANDDEPLOY\XMLPROJECT\COCOS2D\COCOS\EDITOR-SUPPORT\SPINE\PROJ.WIN32\DEBUG.WIN32\SPINE-COCOS2DX.OBJ
C:\WINDOWS\GLOBALIZATION\SORTING\SORTDEFAULT.NLS
